Using taxonerd in R
…
taxa <- taxa_df |>
  tidyr::unnest_longer("entity") |> 
  mutate(taxa = map(entity, 2 ), 
         prob = map_dbl(entity, 3)) |>
  unnest("taxa")

taxa |>
  select(file, text, taxa, prob) |>
  distinct()

# A tibble: 1,192 × 4
   file                             text                 taxa               prob
   <chr>                            <chr>                <chr>             <dbl>
 1 09596830094971.pdf               Sphagnum             Sphagnum          1    
 2 09596830094971.pdf               Sphagnum peats       Sphagnum          0.715
 3 09596830094971.pdf               sheep                sheep             1    
 4 09596830094971.pdf               Rubus chamaemorus    Rubus chamaemorus 1    
 5 09596830094971.pdf               heather              C. heatherae      0.777
 6 09596830094971.pdf               Eriophorum           Eriophorum        1    
 7 09596830094971.pdf               Calluna vulgaris     Calluna vulgaris  1    
 8 09596830094971.pdf               Rubus chamaemorus L. Rubus chamaemoru… 1    
 9 09596830094971.pdf               Eriophorum bog       Eriophorum        0.788
10 1-s2.0-003807179500092S-main.pdf Dairy cow            dairy cow         1    
# … with 1,182 more rows
…
