…
```{.r .cell-code}
taxa <- taxa_df |>
  tidyr::unnest_longer("entity") |> 
  mutate(taxa = map(entity, 2 ), 
         prob = map_dbl(entity, 3)) |>
  unnest("taxa")

taxa
```

::: {.cell-output .cell-output-stdout}
```
# A tibble: 4,044 × 6
   offsets          text              entity     file               taxa    prob
   <chr>            <chr>             <list>     <chr>              <chr>  <dbl>
 1 LIVB 21393 21401 Sphagnum          <list [3]> 09596830094971.pdf Sphag… 1    
 2 LIVB 22635 22649 Sphagnum peats    <list [3]> 09596830094971.pdf Sphag… 0.715
 3 LIVB 24324 24329 sheep             <list [3]> 09596830094971.pdf sheep  1    
 4 LIVB 26103 26108 sheep             <list [3]> 09596830094971.pdf sheep  1    
 5 LIVB 26875 26892 Rubus chamaemorus <list [3]> 09596830094971.pdf Rubus… 1    
 6 LIVB 27953 27960 heather           <list [3]> 09596830094971.pdf C. he… 0.777
 7 LIVB 27953 27960 heather           <list [3]> 09596830094971.pdf C. he… 0.777
 8 LIVB 27953 27960 heather           <list [3]> 09596830094971.pdf C. he… 0.777
 9 LIVB 28517 28524 heather           <list [3]> 09596830094971.pdf C. he… 0.777
10 LIVB 28517 28524 heather           <list [3]> 09596830094971.pdf C. he… 0.777
# … with 4,034 more rows
```
…
